project/cpu_source_code/project_1.sim/sim_1/behav/xsim/test_sim.vcd
$date
   Tue May 23 15:53:45 2023
$end
$version
  2017.4
$end
$timescale
  1ps
$end
$scope module test_sim $end
$var reg 1 ! clk $end
$var reg 1 " reset $end
$var wire 1 # ram_wen_w $end
$var wire 32 $ ram_adr_i_w [31:0] $end
$var wire 32 % ram_dat_i_w [31:0] $end
$var wire 32 & ram_dat_o_w [31:0] $end
$var wire 32 ' imem_instr [31:0] $end
$var wire 32 ( imem_addr [31:0] $end
$var wire 32 ) ram_reg_o [31:0] $end
$var wire 32 * ram_reg_o2 [31:0] $end
$var wire 1 + outter_input $end
$var wire 32 , outter_t9 [31:0] $end
$scope module u_cpu $end
$var wire 1 - clk $end
$var wire 1 . reset $end
$var wire 1 # ram_wen_w $end
$var wire 32 $ ram_adr_i_w [31:0] $end
$var wire 32 % ram_dat_i_w [31:0] $end
$var wire 32 & ram_dat_o_w [31:0] $end
$var wire 32 ' imem_instr [31:0] $end
$var wire 32 ( imem_addr [31:0] $end
$var wire 32 ) ram_reg_o [31:0] $end
$var wire 32 * ram_reg_o2 [31:0] $end
$var wire 1 + outter_input $end
$var wire 32 , outter_t9 [31:0] $end
$var wire 32 / pc [31:0] $end
$var wire 32 0 pre_pc [31:0] $end
$var wire 1 1 if_id_flush $end
$var wire 1 2 if_id_valid $end
$var wire 32 3 if_id_instr [31:0] $end
$var wire 32 4 if_id_in_instr [31:0] $end
$var wire 32 5 if_id_pc [31:0] $end
$var wire 1 6 if_id_noflush $end
$var wire 1 7 decode_Jr $end
$var wire 1 8 decode_Jmp $end
$var wire 1 9 decode_Jal $end
$var wire 1 : decode_Branch $end
$var wire 1 ; decode_nBranch $end
$var wire 1 < decode_RegDST $end
$var wire 1 = decode_MemtoReg $end
$var wire 1 > decode_RegWrite $end
$var wire 1 ? decode_MemWrite $end
$var wire 1 @ decode_ALUSrc $end
$var wire 1 A decode_I_format $end
$var wire 1 B decode_Sftmd $end
$var wire 2 C decode_ALUOp [1:0] $end
$var wire 5 D decode_rs_addr [4:0] $end
$var wire 5 E decode_rt_addr [4:0] $end
$var wire 5 F decode_rd_addr [4:0] $end
$var wire 32 G decode_imm_extended [31:0] $end
$var wire 6 H decode_Opcode [5:0] $end
$var wire 6 I decode_Function_Opcode [5:0] $end
$var wire 5 J decode_Shamt [4:0] $end
$var wire 1 K regs_write $end
$var wire 5 L regs_write_reg [4:0] $end
$var wire 32 M regs_write_data [31:0] $end
$var wire 32 N regs_read_data_1 [31:0] $end
$var wire 32 O regs_read_data_2 [31:0] $end
$var wire 1 P id_ex_flush $end
$var wire 1 Q id_ex_valid $end
$var wire 1 R id_ex_Jr $end
$var wire 1 S id_ex_Jmp $end
$var wire 1 T id_ex_Jal $end
$var wire 1 U id_ex_Branch $end
$var wire 1 V id_ex_nBranch $end
$var wire 1 W id_ex_RegDST $end
$var wire 1 X id_ex_MemtoReg $end
$var wire 1 Y id_ex_RegWrite $end
$var wire 1 Z id_ex_MemWrite $end
$var wire 1 [ id_ex_ALUSrc $end
$var wire 1 \ id_ex_I_format $end
$var wire 1 ] id_ex_Sftmd $end
$var wire 2 ^ id_ex_ALUOp [1:0] $end
$var wire 5 _ id_ex_rs_addr [4:0] $end
$var wire 5 ` id_ex_rt_addr [4:0] $end
$var wire 5 a id_ex_rd_addr [4:0] $end
$var wire 32 b id_ex_rs_data [31:0] $end
$var wire 32 c id_ex_rt_data [31:0] $end
$var wire 32 d id_ex_imm_extended [31:0] $end
$var wire 6 e id_ex_Opcode [5:0] $end
$var wire 6 f id_ex_Function_Opcode [5:0] $end
$var wire 5 g id_ex_Shamt [4:0] $end
$var wire 32 h id_ex_pc [31:0] $end
$var wire 1 i ex_Zero $end
$var wire 32 j ex_ALU_result [31:0] $end
$var wire 32 k ex_Addr_Result [31:0] $end
$var wire 1 l ex_mem_flush $end
$var wire 1 m ex_mem_MemtoReg $end
$var wire 1 n ex_mem_MemWrite $end
$var wire 1 o ex_mem_RegWrite $end
$var wire 1 p ex_mem_RegDST $end
$var wire 1 q ex_mem_Jal $end
$var wire 1 r ex_mem_Zero $end
$var wire 5 s ex_mem_rs_addr [4:0] $end
$var wire 5 t ex_mem_rt_addr [4:0] $end
$var wire 5 u ex_mem_rd_addr [4:0] $end
$var wire 32 v ex_mem_ALU_result [31:0] $end
$var wire 32 w ex_mem_Addr_Result [31:0] $end
$var wire 32 x ex_mem_imm_extended [31:0] $end
$var wire 32 y ex_mem_read_data_1 [31:0] $end
$var wire 32 z ex_mem_read_data_2 [31:0] $end
$var wire 32 { ex_mem_pc [31:0] $end
$var wire 1 | mem_wb_RegWrite $end
$var wire 1 } mem_wb_Jal $end
$var wire 1 ~ mem_wb_RegDST $end
$var wire 1 !! mem_wb_MemtoReg $end
$var wire 32 "! mem_wb_ReadData [31:0] $end
$var wire 32 #! mem_wb_ALU_result [31:0] $end
$var wire 5 $! mem_wb_rt_addr [4:0] $end
$var wire 5 %! mem_wb_rd_addr [4:0] $end
$var wire 32 &! mem_wb_pc [31:0] $end
$var wire 1 '! mem_wb_Zero $end
$var wire 32 (! mem_wb_Addr_Result [31:0] $end
$var wire 5 )! wb_write_reg [4:0] $end
$var wire 1 *! wb_write $end
$var wire 32 +! wb_write_data [31:0] $end
$var wire 32 ,! forwarding_rs_data [31:0] $end
$var wire 32 -! forwarding_rt_data [31:0] $end
$var wire 5 .! forwarding_exMem_read [4:0] $end
$var wire 5 /! forwarding_memWb_read [4:0] $end
$var wire 32 0! forwarding_mem_wb_data_result [31:0] $end
$var wire 32 1! forwarding_ex_mem_data_result [31:0] $end
$var wire 1 2! hazard_pcFromTaken $end
$var wire 1 3! hazard_pcStall $end
$var wire 1 4! hazard_IF_ID_stall $end
$var wire 1 5! hazard_ID_EX_stall $end
$var wire 1 6! hazard_IF_ID_flush $end
$var wire 1 7! hazard_ID_EX_flush $end
$var wire 1 8! hazard_EX_MEM_flush $end
$var wire 1 9! regs_write_Zero $end
$scope module u_pre_if $end
$var wire 32 ' instr [31:0] $end
$var wire 32 / pc [31:0] $end
$var wire 32 0 pre_pc [31:0] $end
$var wire 16 :! immediate [15:0] $end
$var wire 26 ;! address [25:0] $end
$var wire 1 <! Branch $end
$var wire 1 =! nBranch $end
$var wire 1 >! Jump $end
$var wire 1 ?! JumpAndLink $end
$var wire 7 @! opcode [6:0] $end
$var wire 32 A! pc_plus_4 [31:0] $end
$var wire 32 B! BranchAddr [31:0] $end
$var wire 32 C! JumpAddr [31:0] $end
$upscope $end
$scope module u_if_id $end
$var wire 1 - clk $end
$var wire 1 . reset $end
$var wire 32 4 in_instr [31:0] $end
$var wire 32 / in_pc [31:0] $end
$var wire 1 1 flush $end
$var wire 1 2 valid $end
$var wire 32 3 out_instr [31:0] $end
$var wire 32 5 out_pc [31:0] $end
$var wire 1 6 out_noflush $end
$var reg 32 D! reg_instr [31:0] $end
$var reg 32 E! reg_pc [31:0] $end
$var reg 32 F! reg_pc_next [31:0] $end
$var reg 1 G! reg_noflush $end
$upscope $end
$scope module u_decoder $end
$var wire 32 3 instr [31:0] $end
$var reg 1 H! Jr $end
$var reg 1 I! Jmp $end
$var reg 1 J! Jal $end
$var reg 1 K! Branch $end
$var reg 1 L! nBranch $end
$var reg 1 M! RegDST $end
$var reg 1 N! MemtoReg $end
$var reg 1 O! RegWrite $end
$var reg 1 P! MemWrite $end
$var reg 1 Q! ALUSrc $end
$var reg 1 R! I_format $end
$var reg 1 S! Sftmd $end
$var reg 2 T! ALUOp [1:0] $end
$var wire 5 D rs_addr [4:0] $end
$var wire 5 E rt_addr [4:0] $end
$var wire 5 F rd_addr [4:0] $end
$var wire 5 J Shamt [4:0] $end
$var wire 32 G imm_extended [31:0] $end
$var wire 6 H Opcode [5:0] $end
$var wire 6 I Function_opcode [5:0] $end
$var reg 1 U! R_format $end
$var reg 1 V! Lw $end
$var reg 1 W! Sw $end
$var wire 16 X! immediate [15:0] $end
$upscope $end
$scope module u_gen_regs $end
$var wire 1 - clock $end
$var wire 1 . reset $end
$var wire 5 D rs [4:0] $end
$var wire 5 E rt [4:0] $end
$var wire 5 F rd [4:0] $end
$var wire 1 K write $end
$var wire 5 L write_reg [4:0] $end
$var wire 32 M write_data [31:0] $end
$var wire 1 + outter_input $end
$var wire 32 , outter_t9 [31:0] $end
$var reg 32 Y! ram_reg_o [31:0] $end
$var reg 32 Z! ram_reg_o2 [31:0] $end
$var wire 32 N read_data_1 [31:0] $end
$var wire 32 O read_data_2 [31:0] $end
$var integer 32 [! i $end
$upscope $end
$scope module u_id_ex $end
$var wire 1 - clk $end
$var wire 1 . reset $end
$var wire 1 P flush $end
$var wire 1 Q valid $end
$var wire 1 7 in_Jr $end
$var wire 1 8 in_Jmp $end
$var wire 1 9 in_Jal $end
$var wire 1 : in_Branch $end
$var wire 1 ; in_nBranch $end
$var wire 1 < in_RegDST $end
$var wire 1 = in_MemtoReg $end
$var wire 1 > in_RegWrite $end
$var wire 1 ? in_MemWrite $end
$var wire 1 @ in_ALUSrc $end
$var wire 1 A in_I_format $end
$var wire 1 B in_Sftmd $end
$var wire 2 C in_ALUOp [1:0] $end
$var wire 5 D in_rs_addr [4:0] $end
$var wire 5 E in_rt_addr [4:0] $end
$var wire 5 F in_rd_addr [4:0] $end
$var wire 32 N in_rs_data [31:0] $end
$var wire 32 O in_rt_data [31:0] $end
$var wire 32 G in_imm_extended [31:0] $end
$var wire 6 H in_Opcode [5:0] $end
$var wire 6 I in_Function_Opcode [5:0] $end
$var wire 5 J in_Shamt [4:0] $end
$var wire 32 5 in_pc [31:0] $end
$var wire 1 R out_Jr $end
$var wire 1 S out_Jmp $end
$var wire 1 T out_Jal $end
$var wire 1 U out_Branch $end
$var wire 1 V out_nBranch $end
$var wire 1 W out_RegDST $end
$var wire 1 X out_MemtoReg $end
$var wire 1 Y out_RegWrite $end
$var wire 1 Z out_MemWrite $end
$var wire 1 [ out_ALUSrc $end
$var wire 1 \ out_I_format $end
$var wire 1 ] out_Sftmd $end
$var wire 2 ^ out_ALUOp [1:0] $end
$var wire 5 _ out_rs_addr [4:0] $end
$var wire 5 ` out_rt_addr [4:0] $end
$var wire 5 a out_rd_addr [4:0] $end
$var wire 32 b out_rs_data [31:0] $end
$var wire 32 c out_rt_data [31:0] $end
$var wire 32 d out_imm_extended [31:0] $end
$var wire 6 e out_Opcode [5:0] $end
$var wire 6 f out_Function_Opcode [5:0] $end
$var wire 5 g out_Shamt [4:0] $end
$var wire 32 h out_pc [31:0] $end
$var reg 1 \! reg_Jr $end
$var reg 1 ]! reg_Jmp $end
$var reg 1 ^! reg_Jal $end
$var reg 1 _! reg_Branch $end
$var reg 1 `! reg_nBranch $end
$var reg 1 a! reg_RegDST $end
$var reg 1 b! reg_MemtoReg $end
$var reg 1 c! reg_RegWrite $end
$var reg 1 d! reg_MemWrite $end
$var reg 1 e! reg_ALUSrc $end
$var reg 1 f! reg_I_format $end
$var reg 1 g! reg_Sftmd $end
$var reg 2 h! reg_ALUOp [1:0] $end
$var reg 5 i! reg_rs_addr [4:0] $end
$var reg 5 j! reg_rt_addr [4:0] $end
$var reg 5 k! reg_rd_addr [4:0] $end
$var reg 32 l! reg_rs_data [31:0] $end
$var reg 32 m! reg_rt_data [31:0] $end
$var reg 32 n! reg_imm_extended [31:0] $end
$var reg 6 o! reg_Opcode [5:0] $end
$var reg 6 p! reg_Function_Opcode [5:0] $end
$var reg 5 q! reg_Shamt [4:0] $end
$var reg 32 r! reg_PC [31:0] $end
$upscope $end
$scope module u_execute $end
$var wire 32 ,! Read_data_1 [31:0] $end
$var wire 32 -! Read_data_2 [31:0] $end
$var wire 32 d Imme_extend [31:0] $end
$var wire 6 f Function_opcode [5:0] $end
$var wire 6 e opcode [5:0] $end
$var wire 5 g Shamt [4:0] $end
$var wire 32 h PC [31:0] $end
$var wire 2 ^ ALUOp [1:0] $end
$var wire 1 [ ALUSrc $end
$var wire 1 \ I_format $end
$var wire 1 ] Sftmd $end
$var wire 1 R Jr $end
$var wire 1 i Zero $end
$var reg 32 s! ALU_Result [31:0] $end
$var wire 32 k Addr_Result [31:0] $end
$var wire 32 t! Ainput [31:0] $end
$var wire 32 u! Binput [31:0] $end
$var wire 6 v! Exe_code [5:0] $end
$var wire 3 w! ALU_ctl [2:0] $end
$var wire 3 x! Sftm [2:0] $end
$var reg 32 y! ALU_output_mux [31:0] $end
$var reg 32 z! Shift_Result [31:0] $end
$var wire 32 {! Branch_Addr [31:0] $end
$var wire 32 |! PC_plus_4 [31:0] $end
$upscope $end
$scope module u_ex_mem $end
$var wire 1 - clk $end
$var wire 1 . reset $end
$var wire 1 l flush $end
$var wire 1 X in_MemtoReg $end
$var wire 1 Z in_MemWrite $end
$var wire 1 Y in_RegWrite $end
$var wire 1 W in_RegDST $end
$var wire 1 T in_Jal $end
$var wire 1 i in_Zero $end
$var wire 5 _ in_rs_addr [4:0] $end
$var wire 5 ` in_rt_addr [4:0] $end
$var wire 5 a in_rd_addr [4:0] $end
$var wire 32 j in_ALUResult [31:0] $end
$var wire 32 k in_Addr_Result [31:0] $end
$var wire 32 d in_imm_extended [31:0] $end
$var wire 32 N in_read_data_1 [31:0] $end
$var wire 32 O in_read_data_2 [31:0] $end
$var wire 32 h in_pc [31:0] $end
$var wire 1 m out_MemtoReg $end
$var wire 1 n out_MemWrite $end
$var wire 1 o out_RegWrite $end
$var wire 1 p out_RegDST $end
$var wire 1 q out_Jal $end
$var wire 1 r out_Zero $end
$var wire 5 s out_rs_addr [4:0] $end
$var wire 5 t out_rt_addr [4:0] $end
$var wire 5 u out_rd_addr [4:0] $end
$var wire 32 v out_ALUResult [31:0] $end
$var wire 32 w out_Addr_Result [31:0] $end
$var wire 32 x out_imm_extended [31:0] $end
$var wire 32 y out_read_data_1 [31:0] $end
$var wire 32 z out_read_data_2 [31:0] $end
$var wire 32 { out_pc [31:0] $end
$var reg 1 }! reg_MemtoReg $end
$var reg 1 ~! reg_MemWrite $end
$var reg 1 !" reg_RegWrite $end
$var reg 1 "" reg_RegDST $end
$var reg 1 #" reg_Jal $end
$var reg 1 $" reg_Zero $end
$var reg 5 %" reg_rs_addr [4:0] $end
$var reg 5 &" reg_rt_addr [4:0] $end
$var reg 5 '" reg_rd_addr [4:0] $end
$var reg 32 (" reg_ALUResult [31:0] $end
$var reg 32 )" reg_Addr_Result [31:0] $end
$var reg 32 *" reg_imm_extended [31:0] $end
$var reg 32 +" reg_read_data_1 [31:0] $end
$var reg 32 ," reg_read_data_2 [31:0] $end
$var reg 32 -" reg_pc [31:0] $end
$upscope $end
$scope module u_mem_wb $end
$var wire 1 - clk $end
$var wire 1 . reset $end
$var wire 1 o in_RegWrite $end
$var wire 1 q in_Jal $end
$var wire 1 p in_RegDST $end
$var wire 1 m in_MemtoReg $end
$var wire 32 & in_ReadData [31:0] $end
$var wire 32 v in_ALUResult [31:0] $end
$var wire 5 t in_rt_addr [4:0] $end
$var wire 5 u in_rd_addr [4:0] $end
$var wire 32 { in_pc [31:0] $end
$var wire 1 r in_Zero $end
$var wire 32 w in_Addr_Result [31:0] $end
$var wire 1 | out_RegWrite $end
$var wire 1 } out_Jal $end
$var wire 1 ~ out_RegDST $end
$var wire 1 !! out_MemtoReg $end
$var wire 32 "! out_ReadData [31:0] $end
$var wire 32 #! out_ALUResult [31:0] $end
$var wire 5 $! out_rt_addr [4:0] $end
$var wire 5 %! out_rd_addr [4:0] $end
$var wire 32 &! out_pc [31:0] $end
$var wire 1 '! out_Zero $end
$var wire 32 (! out_Addr_Result [31:0] $end
$var reg 1 ." reg_RegWrite $end
$var reg 1 /" reg_Jal $end
$var reg 1 0" reg_RegDST $end
$var reg 1 1" reg_MemtoReg $end
$var reg 32 2" reg_ReadData [31:0] $end
$var reg 32 3" reg_ALUResult [31:0] $end
$var reg 5 4" reg_rt_addr [4:0] $end
$var reg 5 5" reg_rd_addr [4:0] $end
$var reg 32 6" reg_pc [31:0] $end
$var reg 1 7" reg_Zero $end
$var reg 32 8" reg_Addr_Result [31:0] $end
$upscope $end
$scope module u_forwarding $end
$var wire 5 _ rs [4:0] $end
$var wire 5 ` rt [4:0] $end
$var wire 5 .! exMemRd [4:0] $end
$var wire 1 o exMemRw $end
$var wire 5 /! memWBRd [4:0] $end
$var wire 1 | memWBRw $end
$var wire 1 !! mem_wb_ctrl_data_toReg $end
$var wire 32 "! mem_wb_readData [31:0] $end
$var wire 32 0! mem_wb_data_result [31:0] $end
$var wire 32 b id_ex_data_regRData1 [31:0] $end
$var wire 32 c id_ex_data_regRData2 [31:0] $end
$var wire 32 1! ex_mem_data_result [31:0] $end
$var wire 32 ,! forward_rs_data [31:0] $end
$var wire 32 -! forward_rt_data [31:0] $end
$var wire 2 9" forward_rs_sel [1:0] $end
$var wire 2 :" forward_rt_sel [1:0] $end
$var wire 32 ;" regWData [31:0] $end
$upscope $end
$scope module u_hazard $end
$var wire 5 _ rs [4:0] $end
$var wire 5 ` rt [4:0] $end
$var wire 1 R id_ex_jr $end
$var wire 1 U id_ex_Branch $end
$var wire 1 V id_ex_nBranch $end
$var wire 1 i ex_Zero $end
$var wire 1 X id_ex_memRead $end
$var wire 1 Z id_ex_memWrite $end
$var wire 5 a id_ex_rd [4:0] $end
$var wire 1 n ex_mem_memWrite $end
$var reg 1 <" pcFromTaken $end
$var reg 1 =" pcStall $end
$var reg 1 >" IF_ID_stall $end
$var reg 1 ?" ID_EX_stall $end
$var reg 1 @" ID_EX_flush $end
$var reg 1 A" EX_MEM_flush $end
$var reg 1 B" IF_ID_flush $end
$var wire 1 C" branch_do $end
$var wire 1 D" ex_mem_taken $end
$var wire 1 E" id_ex_memAccess $end
$var wire 1 F" ex_mem_need_stall $end
$upscope $end
$scope module u_pc_gen $end
$var wire 1 . reset $end
$var wire 1 - clk $end
$var wire 32 ,! Read_data_1 [31:0] $end
$var wire 1 3! hazard_pcStall $end
$var wire 1 2! hazard_pcFromTaken $end
$var wire 1 R id_ex_Jr $end
$var wire 32 h pc_i [31:0] $end
$var wire 32 0 pre_pc [31:0] $end
$var wire 32 / pc_o [31:0] $end
$var reg 32 G" pc [31:0] $end
$var wire 32 H" next_pc [31:0] $end
$upscope $end
$upscope $end
$scope module u_dmem $end
$var wire 12 I" addr [11:0] $end
$var wire 1 # we $end
$var wire 32 % din [31:0] $end
$var wire 1 J" clk $end
$var reg 32 K" dout [31:0] $end
$upscope $end
$scope module u_imem $end
$var wire 14 L" addr [13:0] $end
$var wire 32 ' imem_o [31:0] $end
$upscope $end
$upscope $end
$enddefinitions $end
#0
$dumpvars
0!
x!!
x!"
1"
bx "!
x""
x#
bx #!
x#"
bx $
bx $!
x$"
bx %
bx %!
bx %"
bx &
bx &!
bx &"
bx '
x'!
bx '"
bx (
bx (!
bx ("
bx )
bz )!
bx )"
bx *
z*!
bx *"
1+
bz +!
bx +"
b11 ,
bx ,!
bx ,"
0-
bx -!
bx -"
1.
bx .!
x."
bx /
bx /!
x/"
bx 0
bx 0!
x0"
x1
bx 1!
x1"
x2
x2!
bx 2"
bx 3
x3!
bx 3"
bx 4
x4!
bx 4"
bx 5
x5!
bx 5"
x6
x6!
bx 6"
x7
x7!
x7"
x8
x8!
bx 8"
x9
x9!
bx 9"
x:
bx :!
bx :"
x;
bx ;!
bx ;"
x<
x<!
x<"
x=
x=!
x="
x>
x>!
x>"
x?
x?!
x?"
x@
bx @!
x@"
xA
bx A!
xA"
xB
bx00 B!
xB"
bx C
bx00 C!
xC"
bx D
bx D!
xD"
bx E
bx E!
xE"
bx F
bx F!
xF"
bx G
xG!
bx G"
bx H
xH!
bx H"
bx I
xI!
bx I"
bx J
xJ!
0J"
xK
xK!
bx K"
bx L
xL!
bx L"
bx M
xM!
bx N
xN!
bx O
xO!
xP
xP!
xQ
xQ!
xR
xR!
xS
xS!
xT
bx T!
xU
xU!
xV
xV!
xW
xW!
xX
bx X!
xY
bx Y!
xZ
bx Z!
x[
bx [!
x\
x\!
x]
x]!
bx ^
x^!
bx _
x_!
bx `
x`!
bx a
xa!
bx b
xb!
bx c
xc!
bx d
xd!
bx e
xe!
bx f
xf!
bx g
xg!
bx h
bx h!
xi
bx i!
bx j
bx j!
bx k
bx k!
xl
bx l!
xm
bx m!
xn
bx n!
xo
bx o!
xp
bx p!
xq
bx q!
xr
bx r!
bx s
bx s!
bx t
bx t!
bx u
bx u!
bx v
bx v!
bx w
bx w!
bx x
bx x!
bx y
bx y!
bx z
bx z!
bx {
bx {!
x|
bx |!
x}
x}!
x~
x~!
$end
#1000
1!
0!!
0!"
b0 "!
0""
0#
b0 #!
0#"
b0 $
b0 $!
0$"
b0 %
b0 %!
b0 %"
b0 &!
b0 &"
b11001000001100000000100000 '
0'!
b0 '"
b0 (
b0 (!
b0 ("
b0 )"
b0 *"
b0 +"
b0 ,!
b0 ,"
1-
b0 -!
b0 -"
b0 .!
0."
b0 /
b0 /!
0/"
b100 0
b0 0!
00"
01
b0 1!
01"
12
02!
b0 2"
b0 3
03!
b0 3"
b11001000001100000000100000 4
04!
b0 4"
b0 5
05!
b0 5"
06
06!
b0 6"
07
07!
07"
08
08!
b0 8"
09
19!
b0 9"
0:
b1100000000100000 :!
b0 :"
0;
b11001000001100000000100000 ;!
b0 ;"
1<
0<!
0<"
0=
0=!
0="
1>
0>!
0>"
0?
0?!
0?"
0@
b1 @!
0@"
0A
b100 A!
0A"
1B
b11111111111111110000000010000000 B!
0B"
b10 C
b1100100000110000000010000000 C!
0C"
b0 D
b0 D!
0D"
b0 E
b0 E!
0E"
b0 F
0F"
b0 G
0G!
b0 G"
b0 H
0H!
b100 H"
b0 I
0I!
b0 I"
b0 J
0J!
1J"
0K
0K!
bx K"
b0 L
0L!
b0 L"
b0 M
1M!
b0 N
0N!
b0 O
1O!
0P
0P!
1Q
0Q!
0R
0R!
0S
1S!
0T
b10 T!
0U
1U!
0V
0V!
0W
0W!
0X
b0 X!
0Y
0Z
0[
0\
0\!
0]
0]!
b0 ^
0^!
b0 _
0_!
b0 `
0`!
b0 a
0a!
b0 b
0b!
b0 c
0c!
b0 d
0d!
b0 e
0e!
b0 f
0f!
b0 g
0g!
b0 h
b0 h!
1i
b0 i!
b0 j
b0 j!
b1 k
b0 k!
0l
b0 l!
0m
b0 m!
0n
b0 n!
0o
b0 o!
0p
b0 p!
0q
b0 q!
0r
b0 r!
b0 s
b0 s!
b0 t
b0 t!
b0 u
b0 u!
b0 v
b0 v!
b0 w
b10 w!
b0 x
b0 x!
b0 y
b0 y!
b0 z
b0 z!
b0 {
b1 {!
0|
b100 |!
0}
0}!
0~
0~!
#2000
0!
0"
b0 )
b0 *
0-
0.
0J"
b0 Y!
b0 Z!
#3000
1!
0!"
bx "!
0""
0#"
1$"
b0 %"
b0 &"
bz '
b0 '"
b100 (
b0 ("
b1 )"
b0 *"
b0 +"
b0 ,"
1-
b0 -"
0."
b100 /
0/"
bx 0
b0 0!
00"
01"
bx 2"
b11001000001100000000100000 3
b0 3"
bz 4
b0 4"
b0 5"
16
b0 6"
07"
b0 8"
bz :!
bz ;!
b0 ;"
x<!
x=!
x>!
x?!
bz @!
b1000 A!
0B
bz00 B!
b0zzzzzzzzzzzzzzzzzzzzzzzzzz00 C!
b11001 D
b11001000001100000000100000 D!
b0 E!
b11000 F
b11111111111111111100000000100000 G
1G!
b100 G"
0H!
b100000 I
0I!
0J!
1J"
0K!
bx K"
0L!
b1 L"
1M!
b11 N
0N!
1O!
0P!
0Q!
0R!
0S!
b10 T!
1U!
0V!
1W
0W!
b1100000000100000 X!
1Y
b0 Y!
b0 Z!
0\!
1]
0]!
b10 ^
0^!
0_!
0`!
1a!
0b!
1c!
0d!
0e!
0f!
1g!
b10 h!
b0 i!
b0 j!
b0 k!
b0 l!
b0 m!
b0 n!
b0 o!
b0 p!
b0 q!
1r
b0 r!
b0 s!
b1 w
b10 w!
b0 z!
0}!
0~!
#4000
0!
0-
0J"
b0 Y!
b0 Z!
#5000
1!
1!"
1""
0#"
1$"
b0 %"
b0 &"
bx '
1'!
b0 '"
bx (
b1 (!
b0 ("
b1 )"
b0 *"
b11 +"
b11 ,!
b0 ,"
1-
b0 -"
b0 .!
0."
bx /
0/"
00"
01"
bx 2"
bz 3
b0 3"
bx 4
b0 4"
b100 5
b0 5"
b0 6"
x7
17"
x8
b1 8"
x9
b0 9"
x:
bx :!
b0 :"
x;
bx ;!
x<
x<!
0<"
x=
x=!
0="
x>
x>!
0>"
x?
x?!
0?"
x@
bx @!
0@"
xA
bx A!
0A"
xB
bx00 B!
0B"
bx C
bx00 C!
0C"
bz D
bz D!
bz E
b100 E!
bz F
bx G
1G!
bx G"
bz H
xH!
bz I
xI!
bz J
xJ!
1J"
xK!
bx K"
xL!
bx L"
xM!
bx N
xN!
bx O
xO!
xP!
xQ!
xR!
xS!
bx T!
xU!
xV!
xW!
bz X!
b0 Y!
b0 Z!
0\!
0]
0]!
0^!
b11001 _
0_!
0`!
b11000 a
1a!
b11 b
0b!
1c!
b11111111111111111100000000100000 d
0d!
0e!
b100000 f
0f!
0g!
b10 h!
0i
b11001 i!
b11 j
b0 j!
b11111111111111111100000000100001 k
b11000 k!
b11 l!
b0 m!
b11111111111111111100000000100000 n!
1o
b0 o!
1p
b100000 p!
b0 q!
b0 r!
b11 s!
b11 t!
b0 u!
b100000 v!
b11 y
b11 y!
b0 z!
b11111111111111111100000000100001 {!
0}!
0~!
#6000
0!
0-
0J"
b0 Y!
b0 Z!
#7000
1!
1!"
1""
0#"
b11 $
0$"
bx %
b11001 %"
b0 &"
b11000 '"
b11 ("
b11111111111111111100000000100001 )"
b11111111111111111100000000100000 *"
bx +"
bx ,!
bx ,"
1-
bx -!
b0 -"
b11000 .!
1."
b0 /!
0/"
10"
b11 1!
01"
bx 2"
bx 3
b0 3"
b0 4"
bx 5
b0 5"
b0 6"
17"
b1 8"
b0x 9"
b0x :"
0<"
0="
0>"
0?"
0@"
0A"
0B"
xC"
bx D
bx D!
xD"
bx E
bx E!
xE"
bx F
1G!
bx G"
bx H
xH!
b1000 H"
bx I
xI!
b0 I"
bx J
xJ!
1J"
xK!
bx K"
b0 L
xL!
xM!
xN!
xO!
xP!
xQ!
xR
xR!
xS
xS!
xT
bx T!
xU
xU!
xV
xV!
xW
xW!
xX
bx X!
xY
b0 Y!
xZ
b0 Z!
x[
x\
x\!
x]
x]!
bx ^
x^!
bz _
x_!
bz `
x`!
bz a
xa!
bx b
xb!
bx c
xc!
bx d
xd!
bz e
xe!
bz f
xf!
bz g
xg!
b100 h
bx h!
1i
bz i!
b0 j
bz j!
bx k
bz k!
bx l!
bx m!
bx n!
bz o!
bz p!
bz q!
0r
b100 r!
b11001 s
b0 s!
bx t!
b11000 u
bx u!
b11 v
bx v!
b11111111111111111100000000100001 w
bx w!
b11111111111111111100000000100000 x
bz x!
bx y
b0 y!
bx z
bx z!
bx {!
1|
b1000 |!
0}!
1~
0~!
#8000
0!
0-
0J"
b0 Y!
b0 Z!
#9000
1!
x!"
x""
x#
b11 #!
x#"
b0 $
1$"
b11000 %!
bz %"
bz &"
0'!
bz '"
b11111111111111111100000000100001 (!
b0 ("
bx )"
bx *"
bx +"
bx ,!
bx ,"
1-
bx -!
b100 -"
bx .!
1."
b11000 /!
0/"
b11 0!
10"
b0x0 1!
01"
bx 2"
b11 3"
b0 4"
b11000 5"
b0 6"
07"
b11111111111111111100000000100001 8"
09!
bx 9"
bx :"
b11 ;"
0<"
0="
0>"
0?"
0@"
0A"
0B"
bx D!
bx E!
xF"
1G!
bx G"
bx H"
b0 I"
1J"
1K
bx K"
b11000 L
b11 M
b0 Y!
b0 Z!
x\!
x]!
x^!
bx _
x_!
bx `
x`!
bx a
xa!
xb!
xc!
xd!
bx e
xe!
bx f
xf!
bx g
xg!
bx h
bx h!
bx i!
bx j!
bx k!
bx l!
xm
bx m!
xn
bx n!
xo
bx o!
xp
bx p!
xq
bx q!
1r
bx r!
bz s
bz t
bz u
b0 v
bx v!
bx w
bx x
bx x!
bx z!
b100 {
bx {!
bx |!
x}!
x~!
#10000
0!
0-
0J"
b0 Y!
b0 Z!
#11000
1!
x!!
x!"
x""
b0 #!
x#"
bz $!
1$"
bz %!
bx %"
b100 &!
bx &"
1'!
bx '"
bx (!
b0 ("
b11 )
bx )"
bx *"
bx +"
bx ,!
bx ,"
1-
bx -!
bx -"
bx .!
x."
bx /!
x/"
bx 0!
x0"
b0xxxxxxxxxxxxxxxxxxxxxxxxxxxxxx 1!
x1"
bx 2"
b0 3"
bz 4"
bz 5"
b100 6"
17"
bx 8"
x9!
bx 9"
bx :"
bx ;"
bx D!
bx E!
1G!
bx G"
1J"
xK
bx K"
bx L
bx M
b11 Y!
b0 Z!
x\!
x]!
x^!
x_!
x`!
xa!
xb!
xc!
xd!
xe!
xf!
xg!
bx h!
bx i!
bx j!
bx k!
bx l!
bx m!
bx n!
bx o!
bx p!
bx q!
bx r!
bx s
bx t
bx u
bx {
x|
x}
x}!
x~
x~!
#12000
0!
0-
0J"
b11 Y!
b0 Z!
#13000
1!
x!"
x""
x#"
bx $!
1$"
bx %!
bx %"
bx &!
bx &"
bx '"
b0 ("
bx )"
bx *"
bx +"
bx ,"
1-
bx -"
x."
bx /!
x/"
bx 0!
x0"
x1"
bx 2"
b0 3"
bx 4"
bx 5"
bx 6"
17"
bx 8"
bx D!
bx E!
1G!
bx G"
1J"
bx K"
bx L
b11 Y!
b0 Z!
x\!
x]!
x^!
x_!
x`!
xa!
xb!
xc!
xd!
xe!
xf!
xg!
bx h!
bx i!
bx j!
bx k!
bx l!
bx m!
bx n!
bx o!
bx p!
bx q!
bx r!
x}!
x~!
#14000
0!
0-
0J"
b11 Y!
b0 Z!
